{
    "Server": {
        "settings": {
            "hostname": "localhost",
            "port": 4500 
        }
    },
    "Slack": {
        "webhook": "YOUR_WEBHOOK_URL",
        "channel": "#random",
        "username": "Inventorious",
        "icon_emoji": ":simple_smile:"
    }
}
